<?xml version="1.0" encoding="UTF-8"?>
<svg enable-background="new 0 0 3000 3000" version="1.1" viewBox="0 0 3000 3000" xml:space="preserve" xmlns="http://www.w3.org/2000/svg">
	<path d="m2379.2 577.5s78.5 86.5 1 175-116.2 25.8-182.2 106.3-7.5 134.9-17.5 121.6-88.5-175.5-41.5-280.8c60-134.7 240.2-122.1 240.2-122.1z" fill="#063" opacity=".5"/>
	<path d="m2357.4 576.1s114.3 23.9 103.5 141.1c-10.8 117.1-78.9 89.1-85 193s73.2 113.6 57.2 108.7c-15.9-4.9-174.7-90.1-198.5-202.9-30.5-144.3 122.8-239.9 122.8-239.9z" fill="#fff"/>
	<path d="m682.4 802.6c33.4-0.3 67.5-17.5 96.7-43.2 5.3-4.7 10.5-9.7 15.5-15 43.9-46.3 72.2-111.1 60.9-160.2-18.2-78.9-147.3-171.1-252.3-195-41.2-9.4-64.3-27.1-76.1-47.6-24.8-43 11.5-121.3 11.5-121.3-4.6-9.6-11.8-20.7-22.3-22.2-30.9-4.4-65.7 78.6-71.7 92.9-67.9 161.9 84.7 513.2 237.8 511.6z" fill="#E94E1B" opacity=".5"/>
	<path d="m837.3 656.2c-3.9 93.3-139.4 188.4-223.8 166.1-78.2-20.7-166.4-152.7-186.9-258.3-8.1-41.5-25-65.1-45.2-77.5-42.6-26.3-120.8 8.1-120.9 7.4 0 0 0.1-0.1 0.2-0.1-18.7-9.2-21.9-17.7-22.4-22.6-3-29.4 81-63.2 89.1-66.4 2.6-1 4.7-1.8 6-2.3 164-63 510.3 100.8 503.9 253.7z" fill="#fff"/>
	<path d="m825.3 664.1c-3.9 93.3-139.4 188.4-223.8 166.1-78.2-20.7-166.4-152.7-186.9-258.3-8.1-41.5-25-65.1-45.2-77.5-42.6-26.3-120.8 8.1-120.9 7.4 0 0 0.1-0.1 0.2-0.1-18.7-9.2-21.9-17.7-22.4-22.6-3-29.4 81-63.2 89.1-66.4 2.6-1 4.7-1.8 6-2.3 164-62.9 510.4 100.8 503.9 253.7z" fill="#E94E1B"/>
	<path d="m1646.9 847.9s72.7-91.4-10.4-174.7-117.5-18.2-188.6-94.3-16.2-134.1-25.3-120.2c-9.2 13.9-77 180.8-23.3 282.9 68.7 130.6 247.6 106.3 247.6 106.3z" fill="#063"/>
	<path d="m2377.3 580.1s114.3 23.9 103.5 141.1c-10.8 117.1-78.9 89.1-85 193s73.2 113.6 57.2 108.7c-15.9-4.9-174.7-90.1-198.5-202.9-30.5-144.3 122.8-239.9 122.8-239.9z" fill="#063"/>
		<path d="m2680.2 460.4h-0.4c-0.3 0-0.6-0.1-1.1-0.1-1-0.1-2.4-0.2-4.3-0.3-1.9-0.2-4.3-0.2-7.2-0.3s-6.2-0.1-10-0.1c-15.1 0.1-37.2 1-65.2 4.7s-61.7 10-99.7 19.7c-38.1 9.7-80.3 23.3-125.5 40.4-45.2 17.2-93.2 38.3-142.7 63.1s-100.7 53.1-152.3 84.6c-12.8 8-25.8 16-38.8 24.1-12.9 8.3-25.8 16.8-38.9 25.3-3.2 2.1-6.5 4.2-9.8 6.4-3.2 2.2-6.4 4.4-9.7 6.6-6.5 4.4-12.9 8.8-19.4 13.2-3.3 2.2-6.5 4.4-9.8 6.6s-6.5 4.4-9.7 6.7c-6.4 4.6-12.9 9.2-19.4 13.8-12.9 9.2-26 18.3-38.7 28-12.9 9.6-25.9 19.2-38.9 28.8-6.5 4.8-13 9.6-19.6 14.3-1.6 1.2-3.2 2.4-4.9 3.6l-5.2 3.5-10.3 7.1-10.3 7.1-10.5 6.7-10.5 6.7c-1.7 1.1-3.5 2.3-5.2 3.3l-5.3 3.2c-28.2 17.4-57.6 33.1-87.5 47.4-30 14.2-60.7 26.7-91.9 37.3-31.2 10.5-62.9 19.1-94.7 25.3-31.8 6.3-63.7 10.2-95.1 12.1-31.5 1.8-62.5 1.5-92.7-0.8-30.2-2.2-59.6-6.3-87.8-11.7s-55.3-12.3-81.1-20.1c-25.8-7.9-50.3-16.5-73.3-25.9-46.2-18.7-86.6-39.6-121.2-60.1s-63.2-40.6-86-58-39.8-32.3-51.1-42.7c-5.6-5.2-9.9-9.3-12.7-12.1s-4.2-4.3-4.2-4.3l3.4-3.9s1.6 1.2 4.8 3.4 8 5.5 14.3 9.7c12.6 8.4 31.4 20.3 55.8 34.4s54.5 30.2 89.9 46.7c35.4 16.4 76 33.1 121.3 47.9 22.7 7.3 46.4 14.3 71.3 20.2 24.8 6 50.7 11.2 77.4 15.2 53.5 8 110.4 11.4 169 8.3 29.3-1.5 59-4.7 88.8-9.6s59.8-11.6 89.5-20.3l5.6-1.6c1.9-0.5 3.7-1.2 5.6-1.7 3.7-1.2 7.4-2.4 11.1-3.5l5.6-1.8 2.8-0.9 2.8-1c3.7-1.3 7.3-2.6 11-3.9s7.4-2.6 11-3.9c3.6-1.4 7.3-2.9 10.9-4.3s7.3-2.9 10.9-4.3c1.8-0.7 3.6-1.5 5.4-2.3l5.4-2.3c28.9-12.3 57.3-26.5 84.8-42.4l5.2-2.9c1.7-1 3.4-2 5.1-3.1l10.2-6.2 10.2-6.2 9.9-6.4 9.9-6.4 4.9-3.2c1.7-1.1 3.3-2.3 5-3.4 6.7-4.6 13.3-9.2 19.9-13.8 13.2-9.3 26.4-18.5 39.6-27.8 13.2-9.4 26.7-18.2 40-27.2 6.7-4.5 13.3-8.9 20-13.4 3.3-2.3 6.7-4.4 10.1-6.5 3.4-2.2 6.7-4.3 10.1-6.4 6.7-4.3 13.4-8.6 20.1-12.8 3.3-2.1 6.7-4.3 10-6.4s6.7-4.1 10.1-6.2c13.5-8.2 26.8-16.4 40.2-24.4 13.5-7.8 26.8-15.5 40.1-23.2 53.4-30 106.1-57.1 157.2-80.3 51.1-23.3 100.5-42.8 146.9-58.6 2.9-1 5.8-2 8.6-3 2.9-0.9 5.8-1.8 8.6-2.7 5.7-1.8 11.4-3.6 17-5.4s11.2-3.4 16.7-5 10.9-3.2 16.3-4.7c2.7-0.8 5.4-1.5 8-2.2 2.7-0.7 5.3-1.4 7.9-2.1 5.3-1.4 10.5-2.7 15.6-4 5.2-1.2 10.2-2.4 15.2-3.6 5-1.1 9.9-2.4 14.8-3.3 4.9-1 9.7-2 14.4-3 2.4-0.5 4.7-1 7-1.4l6.9-1.2c4.6-0.8 9.1-1.6 13.5-2.4s8.8-1.4 13-2c4.3-0.6 8.4-1.3 12.5-1.8s8.1-1 12-1.5c2-0.2 3.9-0.5 5.8-0.7l5.7-0.6c3.7-0.4 7.4-0.7 11-1.1 28.5-2.5 51-2.5 66.3-1.8 3.8 0.2 7.2 0.4 10.1 0.6 2.9 0.3 5.4 0.4 7.4 0.7 2 0.2 3.5 0.4 4.5 0.6 0.5 0.1 0.9 0.1 1.1 0.2 0.2 0 0.4 0.1 0.4 0.1l-0.8 4.9z" fill="#063"/>
	<path d="m2379.2 1375.5s78.5 86.5 1 175-116.1 25.8-182.2 106.3-7.5 134.9-17.5 121.6-88.5-175.5-41.5-280.8c60-134.7 240.2-122.1 240.2-122.1z" fill="#063" opacity=".5"/>
	<path d="m2357.4 1374.1s114.3 23.9 103.5 141.1c-10.8 117.1-78.9 89.1-85 193s73.2 113.6 57.2 108.7c-15.9-4.9-174.7-90.1-198.5-202.9-30.5-144.3 122.8-239.9 122.8-239.9z" fill="#fff"/>
	<path d="m682.4 1600.6c33.4-0.3 67.5-17.5 96.7-43.2 5.3-4.7 10.5-9.7 15.5-15 43.9-46.3 72.2-111.1 60.9-160.2-18.2-78.9-147.3-171.1-252.3-195-41.2-9.4-64.3-27.1-76.1-47.6-24.8-43 11.5-121.3 11.5-121.3-4.6-9.6-11.8-20.7-22.3-22.2-30.9-4.4-65.7 78.6-71.7 92.9-67.9 161.9 84.7 513.2 237.8 511.6z" fill="#A51736" opacity=".5"/>
	<path d="m837.3 1454.2c-3.9 93.3-139.4 188.4-223.8 166.1-78.2-20.7-166.4-152.7-186.9-258.3-8.1-41.5-25-65.1-45.2-77.5-42.6-26.3-120.8 8.1-120.9 7.4 0 0 0.1-0.1 0.2-0.1-18.7-9.2-21.9-17.7-22.4-22.6-3-29.4 81-63.2 89.1-66.4 2.6-1 4.7-1.8 6-2.3 164-63 510.3 100.8 503.9 253.7z" fill="#fff"/>
	<path d="m825.3 1462.1c-3.9 93.3-139.4 188.4-223.8 166.1-78.2-20.7-166.4-152.7-186.9-258.3-8.1-41.5-25-65.1-45.2-77.5-42.6-26.3-120.8 8.1-120.9 7.4 0 0 0.1-0.1 0.2-0.1-18.7-9.2-21.9-17.7-22.4-22.6-3-29.4 81-63.2 89.1-66.4 2.6-1 4.7-1.8 6-2.3 164-62.9 510.4 100.8 503.9 253.7z" fill="#A51736"/>
	<path d="m1646.9 1645.9s72.7-91.4-10.4-174.7-117.6-18.2-188.7-94.3-16.2-134.1-25.3-120.2c-9.2 13.9-77 180.8-23.3 282.9 68.8 130.6 247.7 106.3 247.7 106.3z" fill="#063"/>
	<path d="m2377.3 1378.1s114.3 23.9 103.5 141.1c-10.8 117.1-78.9 89.1-85 193s73.2 113.6 57.2 108.7c-15.9-4.9-174.7-90.1-198.5-202.9-30.5-144.3 122.8-239.9 122.8-239.9z" fill="#063"/>
		<path d="m2680.2 1258.4h-0.4c-0.3 0-0.6-0.1-1.1-0.1-1-0.1-2.4-0.2-4.3-0.3-1.9-0.2-4.3-0.2-7.2-0.3s-6.2-0.1-10-0.1c-15.1 0.1-37.2 1-65.2 4.7s-61.7 10-99.7 19.7c-38.1 9.7-80.3 23.3-125.5 40.4-45.2 17.2-93.2 38.3-142.7 63.1s-100.7 53.1-152.3 84.6c-12.8 8-25.8 16-38.8 24.1-12.9 8.3-25.8 16.8-38.9 25.3-3.2 2.1-6.5 4.2-9.8 6.4-3.2 2.2-6.4 4.4-9.7 6.6-6.5 4.4-12.9 8.8-19.4 13.2-3.3 2.2-6.5 4.4-9.8 6.6s-6.5 4.4-9.7 6.7c-6.4 4.6-12.9 9.2-19.4 13.8-12.9 9.2-26 18.3-38.7 28-12.9 9.6-25.9 19.2-38.9 28.8-6.5 4.8-13 9.6-19.6 14.3-1.6 1.2-3.2 2.4-4.9 3.6l-5.2 3.5-10.3 7.1-10.3 7.1-10.5 6.7-10.5 6.7c-1.7 1.1-3.5 2.3-5.2 3.3l-5.3 3.2c-28.2 17.4-57.6 33.1-87.5 47.4-30 14.2-60.7 26.7-91.9 37.3-31.2 10.5-62.9 19.1-94.7 25.3-31.8 6.3-63.7 10.2-95.1 12.1-31.5 1.8-62.5 1.5-92.7-0.8-30.2-2.2-59.6-6.3-87.8-11.7s-55.3-12.3-81.1-20.1c-25.8-7.9-50.3-16.5-73.3-25.9-46.2-18.7-86.6-39.6-121.2-60.1s-63.2-40.6-86-58-39.8-32.3-51.1-42.7c-5.6-5.2-9.9-9.3-12.7-12.1s-4.2-4.3-4.2-4.3l3.4-3.9s1.6 1.2 4.8 3.4 8 5.5 14.3 9.7c12.6 8.4 31.4 20.3 55.8 34.4s54.5 30.2 89.9 46.7c35.4 16.4 76 33.1 121.3 47.9 22.7 7.3 46.4 14.3 71.3 20.2 24.8 6 50.7 11.2 77.4 15.2 53.5 8 110.4 11.4 169 8.3 29.3-1.5 59-4.7 88.8-9.6s59.8-11.6 89.5-20.3l5.6-1.6c1.9-0.5 3.7-1.2 5.6-1.7 3.7-1.2 7.4-2.4 11.1-3.5l5.6-1.8 2.8-0.9 2.8-1c3.7-1.3 7.3-2.6 11-3.9s7.4-2.6 11-3.9c3.6-1.4 7.3-2.9 10.9-4.3s7.3-2.9 10.9-4.3c1.8-0.7 3.6-1.5 5.4-2.3l5.4-2.3c28.9-12.3 57.3-26.5 84.8-42.4l5.2-2.9c1.7-1 3.4-2 5.1-3.1l10.2-6.2 10.2-6.2 9.9-6.4 9.9-6.4 4.9-3.2c1.7-1.1 3.3-2.3 5-3.4 6.7-4.6 13.3-9.2 19.9-13.8 13.2-9.3 26.4-18.5 39.6-27.8 13.2-9.4 26.7-18.2 40-27.2 6.7-4.5 13.3-8.9 20-13.4 3.3-2.3 6.7-4.4 10.1-6.5 3.4-2.2 6.7-4.3 10.1-6.4 6.7-4.3 13.4-8.6 20.1-12.8 3.3-2.1 6.7-4.3 10-6.4s6.7-4.1 10.1-6.2c13.5-8.2 26.8-16.4 40.2-24.4 13.5-7.8 26.8-15.5 40.1-23.2 53.4-30 106.1-57.1 157.2-80.3 51.1-23.3 100.5-42.8 146.9-58.6 2.9-1 5.8-2 8.6-3 2.9-0.9 5.8-1.8 8.6-2.7 5.7-1.8 11.4-3.6 17-5.4s11.2-3.4 16.7-5 10.9-3.2 16.3-4.7c2.7-0.8 5.4-1.5 8-2.2 2.7-0.7 5.3-1.4 7.9-2.1 5.3-1.4 10.5-2.7 15.6-4 5.2-1.2 10.2-2.4 15.2-3.6 5-1.1 9.9-2.4 14.8-3.3 4.9-1 9.7-2 14.4-3 2.4-0.5 4.7-1 7-1.4l6.9-1.2c4.6-0.8 9.1-1.6 13.5-2.4s8.8-1.4 13-2c4.3-0.6 8.4-1.3 12.5-1.8s8.1-1 12-1.5c2-0.2 3.9-0.5 5.8-0.7l5.7-0.6c3.7-0.4 7.4-0.7 11-1.1 28.5-2.5 51-2.5 66.3-1.8 3.8 0.2 7.2 0.4 10.1 0.6 2.9 0.3 5.4 0.4 7.4 0.7 2 0.2 3.5 0.4 4.5 0.6 0.5 0.1 0.9 0.1 1.1 0.2 0.2 0 0.4 0.1 0.4 0.1l-0.8 4.9z" fill="#063"/>
	<path d="m2381.2 2293.5s78.5 86.5 1 175-116.1 25.8-182.2 106.3c-66 80.5-7.5 134.9-17.5 121.6s-88.5-175.5-41.5-280.8c60-134.7 240.2-122.1 240.2-122.1z" fill="#063" opacity=".5"/>
	<path d="m2359.4 2292.1s114.3 23.9 103.5 141.1c-10.8 117.1-78.9 89.1-85 193-6.2 104 73.2 113.6 57.2 108.7-15.9-4.9-174.7-90.1-198.5-202.9-30.5-144.3 122.8-239.9 122.8-239.9z" fill="#fff"/>
	<path d="m684.4 2518.6c33.4-0.3 67.5-17.5 96.7-43.2 5.3-4.7 10.5-9.7 15.5-15 43.9-46.3 72.2-111.1 60.9-160.2-18.2-78.9-147.3-171.1-252.3-195-41.2-9.4-64.3-27.1-76.1-47.6-24.8-43 11.5-121.3 11.5-121.3-4.6-9.6-11.8-20.7-22.3-22.2-30.9-4.4-65.7 78.6-71.7 92.9-67.9 161.9 84.7 513.2 237.8 511.6z" fill="#C14090" opacity=".5"/>
	<path d="m839.3 2372.2c-3.9 93.3-139.4 188.4-223.8 166.1-78.2-20.7-166.4-152.7-186.9-258.3-8.1-41.5-25-65.1-45.2-77.5-42.6-26.3-120.8 8.1-120.9 7.4 0 0 0.1-0.1 0.2-0.1-18.7-9.2-21.9-17.7-22.4-22.6-3-29.4 81-63.2 89.1-66.4 2.6-1 4.7-1.8 6-2.3 164-63 510.3 100.8 503.9 253.7z" fill="#fff"/>
	<path d="m827.3 2380.1c-3.9 93.3-139.4 188.4-223.8 166.1-78.2-20.7-166.4-152.7-186.9-258.3-8.1-41.5-25-65.1-45.2-77.5-42.6-26.3-120.8 8.1-120.9 7.4 0 0 0.1-0.1 0.2-0.1-18.7-9.2-21.9-17.7-22.4-22.6-3-29.4 81-63.2 89.1-66.4 2.6-1 4.7-1.8 6-2.3 164-62.9 510.4 100.8 503.9 253.7z" fill="#C14090"/>
	<path d="m1648.9 2563.9s72.7-91.4-10.4-174.7-117.6-18.2-188.7-94.3-16.2-134.1-25.3-120.2c-9.2 13.9-77 180.8-23.3 282.9 68.8 130.6 247.7 106.3 247.7 106.3z" fill="#063"/>
	<path d="m2379.3 2296.1s114.3 23.9 103.5 141.1c-10.8 117.1-78.9 89.1-85 193-6.2 104 73.2 113.6 57.2 108.7-15.9-4.9-174.7-90.1-198.5-202.9-30.5-144.3 122.8-239.9 122.8-239.9z" fill="#063"/>
		<path d="m2682.2 2176.4h-0.4c-0.3 0-0.6-0.1-1.1-0.1-1-0.1-2.4-0.2-4.3-0.3-1.9-0.2-4.3-0.2-7.2-0.3s-6.2-0.1-10-0.1c-15.1 0.1-37.2 1-65.2 4.7s-61.7 10-99.7 19.7c-38.1 9.7-80.3 23.3-125.5 40.4-45.2 17.2-93.2 38.3-142.7 63.1s-100.7 53.1-152.3 84.6c-12.8 8-25.8 16-38.8 24.1-12.9 8.3-25.8 16.8-38.9 25.3-3.2 2.1-6.5 4.2-9.8 6.4-3.2 2.2-6.4 4.4-9.7 6.6-6.5 4.4-12.9 8.8-19.4 13.2-3.3 2.2-6.5 4.4-9.8 6.6s-6.5 4.4-9.7 6.7c-6.4 4.6-12.9 9.2-19.4 13.8-12.9 9.2-26 18.3-38.7 28-12.9 9.6-25.9 19.2-38.9 28.8-6.5 4.8-13 9.6-19.6 14.3-1.6 1.2-3.2 2.4-4.9 3.6l-5.2 3.5-10.3 7.1-10.3 7.1-10.5 6.7-10.5 6.7c-1.7 1.1-3.5 2.3-5.2 3.3l-5.3 3.2c-28.2 17.4-57.6 33.1-87.5 47.4-30 14.2-60.7 26.7-91.9 37.3-31.2 10.5-62.9 19.1-94.7 25.3-31.8 6.3-63.7 10.2-95.1 12.1-31.5 1.8-62.5 1.5-92.7-0.8-30.2-2.2-59.6-6.3-87.8-11.7s-55.3-12.3-81.1-20.1c-25.8-7.9-50.3-16.5-73.3-25.9-46.2-18.7-86.6-39.6-121.2-60.1s-63.2-40.6-86-58-39.8-32.3-51.1-42.7c-5.6-5.2-9.9-9.3-12.7-12.1s-4.2-4.3-4.2-4.3l3.4-3.9s1.6 1.2 4.8 3.4 8 5.5 14.3 9.7c12.6 8.4 31.4 20.3 55.8 34.4s54.5 30.2 89.9 46.7c35.4 16.4 76 33.1 121.3 47.9 22.7 7.3 46.4 14.3 71.3 20.2 24.8 6 50.7 11.2 77.4 15.2 53.5 8 110.4 11.4 169 8.3 29.3-1.5 59-4.7 88.8-9.6s59.8-11.6 89.5-20.3l5.6-1.6c1.9-0.5 3.7-1.2 5.6-1.7 3.7-1.2 7.4-2.4 11.1-3.5l5.6-1.8 2.8-0.9 2.8-1c3.7-1.3 7.3-2.6 11-3.9s7.4-2.6 11-3.9c3.6-1.4 7.3-2.9 10.9-4.3s7.3-2.9 10.9-4.3c1.8-0.7 3.6-1.5 5.4-2.3l5.4-2.3c28.9-12.3 57.3-26.5 84.8-42.4l5.2-2.9c1.7-1 3.4-2 5.1-3.1l10.2-6.2 10.2-6.2 9.9-6.4 9.9-6.4 4.9-3.2c1.7-1.1 3.3-2.3 5-3.4 6.7-4.6 13.3-9.2 19.9-13.8 13.2-9.3 26.4-18.5 39.6-27.8 13.2-9.4 26.7-18.2 40-27.2 6.7-4.5 13.3-8.9 20-13.4 3.3-2.3 6.7-4.4 10.1-6.5 3.4-2.2 6.7-4.3 10.1-6.4 6.7-4.3 13.4-8.6 20.1-12.8 3.3-2.1 6.7-4.3 10-6.4s6.7-4.1 10.1-6.2c13.5-8.2 26.8-16.4 40.2-24.4 13.5-7.8 26.8-15.5 40.1-23.2 53.4-30 106.1-57.1 157.2-80.3 51.1-23.3 100.5-42.8 146.9-58.6 2.9-1 5.8-2 8.6-3 2.9-0.9 5.8-1.8 8.6-2.7 5.7-1.8 11.4-3.6 17-5.4s11.2-3.4 16.7-5 10.9-3.2 16.3-4.7c2.7-0.8 5.4-1.5 8-2.2 2.7-0.7 5.3-1.4 7.9-2.1 5.3-1.4 10.5-2.7 15.6-4 5.2-1.2 10.2-2.4 15.2-3.6 5-1.1 9.9-2.4 14.8-3.3 4.9-1 9.7-2 14.4-3 2.4-0.5 4.7-1 7-1.4l6.9-1.2c4.6-0.8 9.1-1.6 13.5-2.4s8.8-1.4 13-2c4.3-0.6 8.4-1.3 12.5-1.8s8.1-1 12-1.5c2-0.2 3.9-0.5 5.8-0.7l5.7-0.6c3.7-0.4 7.4-0.7 11-1.1 28.5-2.5 51-2.5 66.3-1.8 3.8 0.2 7.2 0.4 10.1 0.6 2.9 0.3 5.4 0.4 7.4 0.7 2 0.2 3.5 0.4 4.5 0.6 0.5 0.1 0.9 0.1 1.1 0.2 0.2 0 0.4 0.1 0.4 0.1l-0.8 4.9z" fill="#063"/>
</svg>
